appdirs==1.4.4
attrs==20.3.0
Authlib==0.15.3
Automat==20.2.0
backports.zoneinfo==0.2.1
beautifulsoup4==4.9.3
cached-property==1.5.2
certifi==2020.12.5
cffi==1.14.5
chardet==3.0.4
click==7.1.2
constantly==15.1.0
cryptography==3.4.6
cssselect==1.1.0
decorator==4.4.2
defusedxml==0.6.0
dnspython==2.1.0
docutils==0.16
et-xmlfile==1.0.1
exchangelib==3.3.2
fpdf==1.7.2
furl==2.1.0
graphviz==0.13.2
hyperlink==21.0.0
idna==2.10
importlib-metadata==3.4.0
incremental==17.5.0
isodate==0.6.0
itemadapter==0.2.0
itemloaders==1.0.4
jdcal==1.4.1
jmespath==0.10.0
jsonpath-ng==1.5.2
jsonschema==3.2.0
lxml==4.6.2
mss==6.1.0
netsuitesdk==1.13.1
notifiers==1.2.1
ntlm-auth==1.5.0
oauthlib==3.1.0
openpyxl==3.0.6
orderedmultidict==1.0.1
parsel==1.6.0
pdfminer.six==20201018
Pillow==8.1.0
ply==3.11
Protego==0.1.16
pyasn1==0.4.8
pyasn1-modules==0.2.8
pycparser==2.20
PyDispatcher==2.0.5
Pygments==2.8.0
PyHamcrest==2.0.2
pynput-robocorp-fork==2.0.0
pyOpenSSL==20.0.1
PyPDF2==1.26.0
pyperclip==1.8.2
pyrsistent==0.17.3
PySocks==1.7.1
python-xlib==0.29
pytz==2021.1
queuelib==1.5.0
requests==2.25.1
requests-file==1.5.1
requests-ntlm==1.1.0
requests-oauthlib==1.3.0
requests-toolbelt==0.9.1
rfc3987==1.3.8
robotframework==3.2.2
robotframework-pythonlibcore==2.2.1
robotframework-requests==0.7.2
robotframework-seleniumlibrary==4.5.0
robotframework-seleniumtestability==1.1.0
rpaframework==7.5.0
rpaframework-core==5.3.1
Scrapy==2.4.1
selenium==3.141.0
service-identity==18.1.0
simple-salesforce==1.10.1
six==1.15.0
sortedcontainers==2.3.0
soupsieve==2.2
tqdm==4.57.0
tweepy==3.10.0
Twisted==20.3.0
typing-extensions==3.7.4.3
tzdata==2021.1
tzlocal==2.1
urllib3==1.26.3
w3lib==1.22.0
webdrivermanager==0.9.0
wrapt==1.12.1
xlrd==1.2.0
xlutils==2.0.0
xlwt==1.3.0
zeep==4.0.0
zipp==3.4.0
zope.interface==5.2.0
